…
ajcs_top <-  ajcs_data %>%
  select(top_code = code, top_level = `Description...5`, super_group = Supergroup) %>%
  mutate(top_code = gsub("\\*", "", top_code)) %>%
  mutate(top_code = gsub("00", "", top_code)) 
ajcs_all <- ajcs_data %>%
  select(code = Code, description = `Description...2`) %>%
  mutate(top_code = substr(code, 1,2)) %>%
  mutate(code = as.character(code)) %>%
  filter(!is.na(code)) %>%
  inner_join(ajcs_top, by = "top_code")
ajcs_all
```

    ## # A tibble: 334 x 5
    ##    code  description                top_code top_level          super_group
    ##    <chr> <chr>                      <chr>    <chr>              <chr>      
    ##  1 1000  Multidisciplinary          10       Multidisciplinary  <NA>       
    ##  2 1100  General Agricultural and … 11       Agricultural and … Life Scien…
    ##  3 1101  Agricultural and Biologic… 11       Agricultural and … Life Scien…
    ##  4 1102  Agronomy and Crop Science  11       Agricultural and … Life Scien…
    ##  5 1103  Animal Science and Zoology 11       Agricultural and … Life Scien…
    ##  6 1104  Aquatic Science            11       Agricultural and … Life Scien…
    ##  7 1105  Ecology, Evolution, Behav… 11       Agricultural and … Life Scien…
    ##  8 1106  Food Science               11       Agricultural and … Life Scien…
    ##  9 1107  Forestry                   11       Agricultural and … Life Scien…
    ## 10 1108  Horticulture               11       Agricultural and … Life Scien…
    ## # … with 324 more rows
…
